{
  "server": {
    "id": "5f6300cc949542f0bcde1ea110ba46a8",
    "uptime_seconds": 16,
    "install_type": "",
    "version": "",
    "os": "nt"
  },
  "config": {
    "switches": "EBOOK_TAB COMIC_TAB SERIES_TAB BOOK_IMG MAG_IMG COMIC_IMG AUTHOR_IMG API_ENABLED CALIBRE_USE_SERVER OPF_TAGS ",
    "params": "IMP_CALIBREDB DOWNLOAD_DIR API_KEY ",
    "BOOK_API": "OpenLibrary",
    "NEWZNAB": 1,
    "TORZNAB": 0,
    "RSS": 0,
    "IRC": 0,
    "GEN": 0,
    "APPRISE": 0
  },
  "usage": {
    "APIgetHelp": 20,
    "web-test": 10,
    "Download!NZB": 1
  }
}